

<svg xmlns="http://www.w3.org/2000/svg" xml:space="preserve" width="7.5in" height="7.5in" version="1.1" style="shape-rendering:geometricPrecision; text-rendering:geometricPrecision; image-rendering:optimizeQuality; fill-rule:evenodd; clip-rule:evenodd"
viewBox="0 0 7500 7500"
 xmlns:xlink="http://www.w3.org/1999/xlink">
 <defs>
  <style type="text/css">
   <![CDATA[
    .fil0 {fill:none}
    .fil1 {fill:#000D2B}
    .fil2 {fill:white}
   ]]>
  </style>
 </defs>
 <g id="Layer_x0020_1">
  <metadata id="CorelCorpID_0Corel-Layer"/>
  <rect class="fil0" width="7500" height="7500"/>
  <g id="_2419947667888">
   <circle class="fil1" cx="3750" cy="3750" r="3100"/>
   <path class="fil2" d="M3735 1789l-876 513 876 513 891 -513 -891 -513zm143 2739l0 1026 1190 -679 0 -1026 -1190 679zm892 -1903l0 1026 -892 513 0 -1026 892 -513zm-2147 1026l892 513 0 -1026 -892 -513 0 1026zm0 1390l892 513 0 -1026 -892 -513 0 1026 0 0 0 0z"/>
  </g>
 </g>
</svg>
