

<svg xmlns="http://www.w3.org/2000/svg" xml:space="preserve" width="7.5in" height="7.5in" version="1.1" style="shape-rendering:geometricPrecision; text-rendering:geometricPrecision; image-rendering:optimizeQuality; fill-rule:evenodd; clip-rule:evenodd"
viewBox="0 0 7500 7500"
 xmlns:xlink="http://www.w3.org/1999/xlink">
 <defs>
  <style type="text/css">
   <![CDATA[
    .fil4 {fill:none}
    .fil3 {fill:#172342}
    .fil0 {fill:#E8E8E8}
    .fil2 {fill:url(#id0)}
    .fil1 {fill:url(#id1)}
   ]]>
  </style>
  <linearGradient id="id0" gradientUnits="userSpaceOnUse" x1="2441.59" y1="3400.63" x2="2441.59" y2="3121.96">
   <stop offset="0" style="stop-opacity:1; stop-color:#F0C614"/>
   <stop offset="1" style="stop-opacity:1; stop-color:#E9A621"/>
  </linearGradient>
  <linearGradient id="id1" gradientUnits="userSpaceOnUse" x1="2441.59" y1="3121.96" x2="2441.59" y2="2843.3">
   <stop offset="0" style="stop-opacity:1; stop-color:#F0C816"/>
   <stop offset="1" style="stop-opacity:1; stop-color:#FBE952"/>
  </linearGradient>
 </defs>
 <g id="Layer_x0020_1">
  <metadata id="CorelCorpID_0Corel-Layer"/>
  <g id="_2419939627600">
   <circle class="fil0" cx="3750" cy="3750" r="3100"/>
   <g>
    <polygon class="fil1" points="1788,2843 1788,3122 3095,3122 3095,2843 "/>
    <polygon class="fil2" points="1788,3122 1788,3401 3095,3401 3095,3122 "/>
    <rect class="fil3" x="3258" y="2843" width="415" height="1813"/>
    <rect class="fil3" transform="matrix(7.50097E-015 -0.259162 0.283221 6.86379E-015 1787.82 3953.17)" width="1467" height="6403"/>
    <rect class="fil3" transform="matrix(7.50097E-015 -0.259162 0.283221 6.86379E-015 1797.26 4656.7)" width="1467" height="6403"/>
    <rect class="fil3" x="1788" y="3573" width="415" height="1084"/>
    <rect class="fil3" x="3827" y="2843" width="415" height="1813"/>
    <rect class="fil3" transform="matrix(-4.7056E-015 -0.259162 -0.177674 6.86379E-015 5712.19 3953.17)" width="1467" height="6403"/>
    <rect class="fil3" transform="matrix(-7.50097E-015 -0.259162 -0.283221 6.86379E-015 5702.74 4656.7)" width="1467" height="6403"/>
    <rect class="fil3" transform="matrix(-7.50097E-015 -0.259162 -0.283221 6.86379E-015 5702.74 3223.41)" width="1467" height="6403"/>
    <rect class="fil3" x="5297" y="3573" width="415" height="1084"/>
   </g>
  </g>
  <rect class="fil4" width="7500" height="7500"/>
 </g>
</svg>
