<?xml version="1.0" encoding="UTF-8"?>
<!DOCTYPE svg PUBLIC "-//W3C//DTD SVG 1.1//EN" "http://www.w3.org/Graphics/SVG/1.1/DTD/svg11.dtd">
<!-- Creator: CorelDRAW X7 -->
<svg xmlns="http://www.w3.org/2000/svg" xml:space="preserve" width="7.5in" height="7.5in" version="1.1" style="shape-rendering:geometricPrecision; text-rendering:geometricPrecision; image-rendering:optimizeQuality; fill-rule:evenodd; clip-rule:evenodd"
viewBox="0 0 7500 7500"
 xmlns:xlink="http://www.w3.org/1999/xlink">
 <defs>
  <style type="text/css">
   <![CDATA[
    .fil0 {fill:none}
    .fil1 {fill:#313131;fill-rule:nonzero}
   ]]>
  </style>
 </defs>
 <g id="Layer_x0020_1">
  <metadata id="CorelCorpID_0Corel-Layer"/>
  <rect class="fil0" width="7500" height="7500"/>
  <path class="fil1" d="M2248 1179c449,-361 1030,-554 1606,-526 576,23 1139,267 1555,666 375,354 629,832 716,1341 -37,3 -75,6 -112,10 -97,-558 -407,-1074 -856,-1420 -424,-334 -968,-511 -1508,-485 -546,21 -1080,251 -1476,627 -360,337 -605,792 -690,1277 -38,-3 -75,-6 -112,-9 98,-579 416,-1117 877,-1481zm1329 1069c465,-107 960,265 994,738 58,453 -324,897 -778,916 -438,40 -860,-325 -888,-764 -45,-411 267,-816 672,-890zm-2 116c-362,77 -622,462 -550,827 61,397 491,686 881,580 386,-82 650,-519 529,-899 -94,-360 -498,-603 -860,-508zm-2302 611c140,-93 348,21 347,189 13,167 -189,295 -335,210 -157,-72 -164,-318 -12,-399zm4719 -2c151,-98 369,44 343,221 -9,164 -215,263 -350,171 -144,-81 -140,-317 7,-392zm-4302 611c29,-26 57,-53 86,-79 514,302 1028,604 1542,905 -18,33 -37,65 -56,97 -524,-308 -1049,-615 -1572,-923zm2449 824c523,-306 1045,-614 1568,-920 27,27 55,54 82,81 -531,313 -1062,624 -1593,936 -19,-32 -38,-65 -57,-97zm-2627 -742c36,-13 72,-27 108,-40 613,854 1224,1710 1836,2565 -30,23 -59,46 -88,70 -619,-865 -1238,-1730 -1856,-2595zm2488 2523c615,-860 1230,-1721 1846,-2580 26,11 78,35 104,47 -620,868 -1241,1735 -1862,2602 -29,-23 -59,-46 -88,-69zm-338 -1695c161,-58 338,107 291,271 -33,169 -268,236 -384,111 -124,-111 -68,-341 93,-382zm9 727c28,0 85,0 113,0 -1,297 -1,594 -1,891 -27,0 -84,0 -112,0 0,-297 0,-594 0,-891zm-39 1193c147,-78 342,53 326,218 0,177 -231,285 -367,172 -136,-95 -112,-327 41,-390z"/>
 </g>
</svg>
