<?xml version="1.0" encoding="UTF-8"?>
<!DOCTYPE svg PUBLIC "-//W3C//DTD SVG 1.1//EN" "http://www.w3.org/Graphics/SVG/1.1/DTD/svg11.dtd">
<!-- Creator: CorelDRAW X7 -->
<svg xmlns="http://www.w3.org/2000/svg" xml:space="preserve" width="7.5in" height="7.5in" version="1.1" style="shape-rendering:geometricPrecision; text-rendering:geometricPrecision; image-rendering:optimizeQuality; fill-rule:evenodd; clip-rule:evenodd"
viewBox="0 0 7500 7500"
 xmlns:xlink="http://www.w3.org/1999/xlink">
 <defs>
  <style type="text/css">
   <![CDATA[
    .fil0 {fill:none}
    .fil1 {fill:#273951}
    .fil2 {fill:white;fill-rule:nonzero}
   ]]>
  </style>
 </defs>
 <g id="Layer_x0020_1">
  <metadata id="CorelCorpID_0Corel-Layer"/>
  <rect class="fil0" width="7500" height="7500"/>
  <g id="_2136194332560">
   <circle class="fil1" cx="3750" cy="3750" r="3100"/>
   <path class="fil2" d="M4084 1583c194,34 384,94 561,179 458,220 832,608 1035,1074 12,33 32,64 35,99 0,335 -1,670 0,1005 -509,238 -1021,472 -1532,708 -141,72 -299,108 -457,111 -357,-2 -679,-174 -876,-471 -184,91 -369,179 -555,267 209,368 568,647 975,762 366,106 769,79 1117,-77 437,-209 874,-419 1311,-627 6,16 16,32 15,50 -1,160 -1,320 0,480 -369,179 -738,355 -1106,534 -150,68 -308,119 -469,152 -246,44 -565,50 -812,3 -269,-52 -530,-155 -760,-306 -416,-268 -733,-686 -880,-1159 -156,-487 -131,-1030 69,-1500 146,-350 386,-659 690,-886 243,-185 528,-315 826,-380 248,-53 567,-60 813,-18zm-1376 806c-339,263 -567,662 -625,1086 -36,248 -13,503 60,742 20,-5 39,-15 57,-24 169,-80 336,-163 504,-242 -184,-756 500,-1458 1249,-1275 209,46 400,162 543,320 -439,198 -881,389 -1320,586 217,154 432,309 648,461 469,-213 939,-423 1408,-636 -2,-124 0,-247 0,-371 0,-9 -2,-17 -5,-25 -159,-354 -447,-647 -798,-812 -237,-113 -500,-169 -762,-159 -346,10 -687,137 -959,349z"/>
  </g>
 </g>
</svg>
