<?xml version="1.0" encoding="UTF-8"?>
<!DOCTYPE svg PUBLIC "-//W3C//DTD SVG 1.1//EN" "http://www.w3.org/Graphics/SVG/1.1/DTD/svg11.dtd">
<!-- Creator: CorelDRAW X7 -->
<svg xmlns="http://www.w3.org/2000/svg" xml:space="preserve" width="7.5in" height="7.5in" version="1.1" style="shape-rendering:geometricPrecision; text-rendering:geometricPrecision; image-rendering:optimizeQuality; fill-rule:evenodd; clip-rule:evenodd"
viewBox="0 0 7500 7500"
 xmlns:xlink="http://www.w3.org/1999/xlink">
 <defs>
  <style type="text/css">
   <![CDATA[
    .fil0 {fill:none}
    .fil1 {fill:#4F6F90}
    .fil3 {fill:#B5C2CE}
    .fil2 {fill:white}
   ]]>
  </style>
 </defs>
 <g id="Layer_x0020_1">
  <metadata id="CorelCorpID_0Corel-Layer"/>
  <rect class="fil0" width="7500" height="7500"/>
  <g id="_2419947391280">
   <polygon class="fil1" points="650,650 6850,650 6850,6850 650,6850 "/>
   <g>
    <polygon class="fil2" points="1920,4718 2520,4718 2520,5717 1920,5717 "/>
    <g>
     <path class="fil2" d="M4918 1721l600 0 0 3996 -600 0 0 -3996 0 0zm0 0l0 0 0 0z"/>
    </g>
   </g>
   <g id="_2419947391632">
    <polygon class="fil3" points="3919,3719 4518,3719 4518,5717 3919,5717 "/>
    <polygon class="fil3" points="2920,2720 3519,2720 3519,5717 2920,5717 "/>
    <polygon class="fil3" points="1920,4718 2520,4718 2520,5717 1920,5717 "/>
   </g>
  </g>
 </g>
</svg>
