

<svg xmlns="http://www.w3.org/2000/svg" xml:space="preserve" width="7.5in" height="7.5in" version="1.1" style="shape-rendering:geometricPrecision; text-rendering:geometricPrecision; image-rendering:optimizeQuality; fill-rule:evenodd; clip-rule:evenodd"
viewBox="0 0 7500 7500"
 xmlns:xlink="http://www.w3.org/1999/xlink">
 <defs>
  <style type="text/css">
   <![CDATA[
    .fil0 {fill:none}
    .fil1 {fill:#AD9863}
    .fil2 {fill:#AD9863;fill-rule:nonzero}
    .fil3 {fill:#F9F1D0;fill-rule:nonzero}
   ]]>
  </style>
 </defs>
 <g id="Layer_x0020_1">
  <metadata id="CorelCorpID_0Corel-Layer"/>
  <rect class="fil0" width="7500" height="7500"/>
  <g id="_2117258966240">
   <circle class="fil1" cx="3750" cy="3750" r="3100"/>
   <path class="fil2" d="M2709 3405c89,-1 179,-1 268,0 -92,82 -186,162 -278,244 -69,60 -137,120 -207,180 -50,1 -100,0 -151,0 122,-142 246,-282 368,-424zm1818 0c85,-1 170,0 256,-1 5,1 12,-1 16,4 122,140 244,281 366,421 -51,0 -101,1 -152,0 -136,-117 -270,-236 -406,-354 -26,-23 -54,-46 -80,-70zm-288 270c51,30 102,60 153,90 -205,347 -411,694 -616,1041 -13,19 -23,41 -36,59 -62,-105 -120,-211 -181,-316 -80,-142 -161,-284 -242,-426 -68,-120 -137,-239 -204,-360 52,-28 103,-59 155,-87 46,82 93,164 139,245 228,1 456,0 685,0 50,-81 97,-164 147,-246zm-730 425c77,137 155,273 232,410 10,-8 14,-21 21,-31 75,-126 150,-252 224,-379 -159,0 -318,0 -477,0z"/>
   <path class="fil3" d="M2369 1714c38,57 74,117 111,174 79,126 159,252 239,377 94,149 188,299 283,447 328,-79 667,-106 1003,-79 167,13 334,41 497,78 212,-332 422,-665 634,-997 107,475 212,950 318,1425 3,11 2,25 13,32 97,78 187,166 265,264 445,558 354,1222 -151,1703 -590,562 -1546,735 -2337,608 -579,-93 -1211,-371 -1548,-874 -295,-440 -281,-956 34,-1383 87,-119 192,-224 306,-317 13,-8 12,-25 16,-38 105,-473 211,-947 317,-1420zm340 1691c-122,142 -246,282 -368,424 51,0 101,1 151,0 70,-60 138,-120 207,-180 92,-82 186,-162 278,-244 -89,-1 -179,-1 -268,0zm1818 0c26,24 54,47 80,70 136,118 270,237 406,354 51,1 101,0 152,0 -122,-140 -244,-281 -366,-421 -4,-5 -11,-3 -16,-4 -86,1 -171,0 -256,1zm-288 270c-50,82 -97,165 -147,246 -229,0 -457,1 -685,0 -46,-81 -93,-163 -139,-245 -52,28 -103,59 -155,87 67,121 136,240 204,360 81,142 162,284 242,426 61,105 119,211 181,316 13,-18 23,-40 36,-59 205,-347 411,-694 616,-1041 -51,-30 -102,-60 -153,-90zm-730 425c159,0 318,0 477,0 -74,127 -149,253 -224,379 -7,10 -11,23 -21,31 -77,-137 -155,-273 -232,-410z"/>
  </g>
 </g>
</svg>
