

<svg xmlns="http://www.w3.org/2000/svg" xml:space="preserve" width="7.5in" height="7.5in" version="1.1" style="shape-rendering:geometricPrecision; text-rendering:geometricPrecision; image-rendering:optimizeQuality; fill-rule:evenodd; clip-rule:evenodd"
viewBox="0 0 7500 7500"
 xmlns:xlink="http://www.w3.org/1999/xlink">
 <defs>
  <style type="text/css">
   <![CDATA[
    .fil0 {fill:none}
    .fil1 {fill:#333333}
    .fil2 {fill:url(#id0)}
   ]]>
  </style>
  <linearGradient id="id0" gradientUnits="userSpaceOnUse" x1="2270.41" y1="2459.36" x2="5271.24" y2="5040.99">
   <stop offset="0" style="stop-opacity:1; stop-color:#BEEA2E"/>
   <stop offset="1" style="stop-opacity:1; stop-color:#52BA00"/>
  </linearGradient>
 </defs>
 <g id="Layer_x0020_1">
  <metadata id="CorelCorpID_0Corel-Layer"/>
  <rect class="fil0" width="7500" height="7500"/>
  <g id="_2080958719024">
   <path class="fil1" d="M6757 4500c-414,1661 -2096,2672 -3757,2257 -1661,-414 -2672,-2096 -2257,-3756 414,-1661 2096,-2672 3757,-2258 1661,414 2672,2097 2257,3757l0 0z"/>
   <path class="fil2" d="M1921 2395l1464 693 0 2848 -1464 -692 0 -2849 0 0zm2216 -831l-2145 763 1450 697 2139 -767 -1444 -693zm-40 1304l0 1743 1523 593 0 -2884 -1523 548z"/>
  </g>
 </g>
</svg>
