

<svg xmlns="http://www.w3.org/2000/svg" xml:space="preserve" width="10in" height="10in" version="1.1" style="shape-rendering:geometricPrecision; text-rendering:geometricPrecision; image-rendering:optimizeQuality; fill-rule:evenodd; clip-rule:evenodd"
viewBox="0 0 10000 10000"
 xmlns:xlink="http://www.w3.org/1999/xlink"
 enable-background="new 0 0 2000 2000"
 data-name="Layer 1">
 <defs>
  <style type="text/css">
   <![CDATA[
    .fil0 {fill:none}
    .fil1 {fill:#5F2652}
    .fil2 {fill:white}
   ]]>
  </style>
 </defs>
 <g id="Layer_x0020_1">
  <metadata id="CorelCorpID_0Corel-Layer"/>
  <rect class="fil0" x="1250" y="1250" width="7500" height="7500"/>
  <rect class="fil0" x="1250" y="1250" width="7500" height="7500"/>
  <g id="_2081119946448">
   <circle class="fil1" cx="5000" cy="5000" r="3100"/>
   <path id="augur.svg" class="fil2" d="M5797 5062c-49,-138 -131,-260 -239,-354l-42 -34 -2 -2c-14,-12 -28,-21 -41,-30l-3 -3c-13,-9 -27,-18 -43,-27 -3,0 -3,-2 -5,-2 -14,-10 -30,-17 -44,-23 -2,0 -2,-3 -4,-3 -14,-7 -30,-14 -46,-20 -2,0 -2,-3 -5,-3 -13,-4 -27,-11 -41,-16 -37,-14 -76,-25 -115,-32 -30,57 -71,108 -117,152 71,4 140,23 202,48 37,16 74,34 106,55 2,0 4,2 4,2 10,5 16,12 26,19 4,2 7,4 11,9 7,4 16,11 23,18 5,5 9,7 14,12 7,7 14,11 21,18l13 14 19 18 13 14c5,7 12,14 17,18 4,5 9,12 13,17l14 20c5,7 9,12 12,19l13 20c5,7 7,14 12,19 4,6 7,13 11,20 5,7 7,14 12,21 2,7 7,14 9,21 5,9 7,18 12,25 18,46 32,94 39,147l20 80c9,35 92,329 285,428 221,114 512,257 627,312l-1514 905 0 -620c0,-99 196,-214 285,-253l5 -2c18,-9 37,-19 55,-30l7 -5c39,-23 76,-50 110,-80 2,-2 7,-5 9,-9 5,-3 7,-7 12,-9 11,-10 20,-21 32,-30l5 -5c11,-11 23,-23 32,-37 2,-4 7,-7 9,-11 9,-9 16,-21 25,-32 2,-3 5,-7 7,-9l28 -42c0,-2 2,-2 2,-4 11,-19 23,-39 34,-58 -46,-55 -80,-115 -108,-170 -11,35 -27,69 -43,99 -7,14 -16,28 -23,41 -2,3 -2,5 -5,5 -7,11 -16,23 -23,32 -2,2 -4,7 -7,9 -7,12 -16,21 -25,30 -2,2 -2,5 -5,5 -55,62 -121,115 -197,151l-14 7c-39,16 -377,170 -377,402l0 620 -1516 -902c99,-60 384,-230 618,-304 92,-29 287,95 398,184l7 7c13,14 29,28 46,39l4 5c35,27 71,55 113,76l27 13c3,0 5,3 5,3 25,13 50,25 78,36 5,3 7,3 11,5 3,0 5,2 10,2 39,14 78,25 117,35 30,-58 73,-108 119,-152 -66,-5 -128,-18 -188,-41 -2,-3 -7,-3 -9,-5 -7,-2 -14,-4 -21,-9 -2,-2 -7,-2 -9,-5 -7,-2 -14,-7 -19,-9 -45,-23 -87,-48 -126,-80l-60 -55c-2,-3 -75,-69 -179,-129 -149,-85 -275,-113 -372,-83 -200,65 -427,186 -565,267l1514 -2720 0 1192c0,42 -62,152 -271,246l-14 7c-21,9 -39,21 -60,32l-4 2c-39,23 -76,51 -113,81 -23,18 -44,39 -62,60l-2 2c-21,20 -39,41 -55,64l-3 2c-9,12 -16,23 -25,35 0,2 -2,2 -2,4 -7,12 -14,21 -21,33 0,2 -2,2 -2,4l-21 35c-2,2 -2,4 -4,9 -7,11 -12,23 -17,32 0,2 -2,5 -2,5 -4,11 -9,20 -14,32 -2,4 -2,7 -4,11l-14 35c-2,4 -2,7 -5,11 -2,9 -4,16 -9,25 -2,5 -2,10 -4,14 -3,12 -7,23 -10,32 -2,5 -2,12 -4,16 -2,7 -2,17 -5,23 -2,7 -2,14 -4,21 -3,9 -3,19 -5,28 0,7 -2,11 -2,18 0,9 -3,16 -3,25 0,10 0,16 -2,26l0 34c0,41 2,85 9,124 60,14 122,39 189,71 -19,-59 -28,-121 -30,-186l0 -11c0,-16 0,-30 2,-46l0 -12c0,-13 2,-25 5,-39l0 -4c2,-14 4,-28 7,-44 0,-5 2,-7 2,-11 2,-12 7,-23 9,-35 0,-2 2,-4 2,-7l14 -41c2,-2 2,-7 5,-9 4,-12 9,-23 14,-32 2,-3 2,-5 4,-10 7,-13 12,-25 21,-36 2,-3 2,-5 4,-7 7,-12 12,-21 19,-32 2,-3 2,-5 4,-7 7,-12 16,-23 26,-35 0,0 0,-2 2,-2 9,-12 16,-21 25,-32 3,-3 3,-5 5,-7 41,-46 87,-85 140,-120l71 -34c39,-16 375,-175 375,-407l0 -1185 1527 2743c-135,-67 -377,-186 -563,-283 -108,-55 -179,-250 -200,-321l-20 -83c0,-44 -12,-87 -25,-131zm1033 864l-1684 -3021c-29,-55 -85,-87 -147,-87 -62,0 -117,32 -147,87l-1683 3021c-44,78 -19,179 59,225l1686 1008c28,16 58,23 88,23 30,0 59,-7 87,-23l1684 -1006c76,-48 103,-149 57,-227l0 0z"/>
  </g>
 </g>
</svg>
