<?xml version="1.0" encoding="UTF-8"?>
<!DOCTYPE svg PUBLIC "-//W3C//DTD SVG 1.1//EN" "http://www.w3.org/Graphics/SVG/1.1/DTD/svg11.dtd">
<!-- Creator: CorelDRAW X7 -->
<svg xmlns="http://www.w3.org/2000/svg" xml:space="preserve" width="7.5in" height="7.5in" version="1.1" style="shape-rendering:geometricPrecision; text-rendering:geometricPrecision; image-rendering:optimizeQuality; fill-rule:evenodd; clip-rule:evenodd"
viewBox="0 0 7500 7500"
 xmlns:xlink="http://www.w3.org/1999/xlink">
 <defs>
  <style type="text/css">
   <![CDATA[
    .fil0 {fill:none}
    .fil1 {fill:#AA0E20}
   ]]>
  </style>
 </defs>
 <g id="Layer_x0020_1">
  <metadata id="CorelCorpID_0Corel-Layer"/>
  <rect class="fil0" width="7500" height="7500"/>
  <g id="_2117259672544">
   <g>
    <g>
     <path class="fil1" d="M4303 3963l-551 1070 -716 -1357 0 -3 -145 -265 -158 268 1019 1847 1018 -1847 -161 -268 -306 555zm0 0l0 0 0 0z"/>
    </g>
    <g>
     <path class="fil1" d="M3752 1977l-126 200 -577 967 145 277 558 -886 545 886 148 -290 -484 -812 -209 -342zm0 0l0 0 0 0z"/>
    </g>
    <g>
     <path class="fil1" d="M3752 2502c-1712,0 -3102,1277 -3102,1280 0,4 1390,1280 3102,1280 1712,0 3098,-1280 3098,-1280 0,0 -1390,-1280 -3098,-1280l0 0zm0 2273c-1335,0 -2841,-993 -2841,-993 0,0 1506,-996 2841,-996 1334,0 2840,971 2840,996 0,26 -1509,993 -2840,993z"/>
    </g>
   </g>
  </g>
 </g>
</svg>
