<?xml version="1.0" encoding="UTF-8"?>
<!DOCTYPE svg PUBLIC "-//W3C//DTD SVG 1.1//EN" "http://www.w3.org/Graphics/SVG/1.1/DTD/svg11.dtd">
<!-- Creator: CorelDRAW X7 -->
<svg xmlns="http://www.w3.org/2000/svg" xml:space="preserve" width="7.5in" height="7.5in" version="1.1" style="shape-rendering:geometricPrecision; text-rendering:geometricPrecision; image-rendering:optimizeQuality; fill-rule:evenodd; clip-rule:evenodd"
viewBox="0 0 7500 7500"
 xmlns:xlink="http://www.w3.org/1999/xlink">
 <defs>
  <style type="text/css">
   <![CDATA[
    .fil0 {fill:none}
    .fil1 {fill:#ABABAB;fill-rule:nonzero}
   ]]>
  </style>
 </defs>
 <g id="Layer_x0020_1">
  <metadata id="CorelCorpID_0Corel-Layer"/>
  <rect class="fil0" width="7500" height="7500"/>
  <g id="_2642180104496">
   <path class="fil1" d="M3843 5136c339,196 678,391 1016,587 -339,195 -677,391 -1016,587 0,-392 0,-783 0,-1174z"/>
   <path class="fil1" d="M2659 5723c339,-196 678,-391 1017,-588 0,392 0,783 0,1175 -339,-196 -678,-391 -1017,-587z"/>
   <path class="fil1" d="M4876 4236c283,163 567,326 849,489 -283,164 -566,327 -849,491 1,-327 0,-654 0,-980z"/>
   <path class="fil1" d="M3890 4725c283,-162 565,-326 848,-489 0,326 0,653 0,979 -283,-163 -566,-327 -848,-490z"/>
   <path class="fil1" d="M2767 4237c283,162 565,326 848,488 -283,164 -565,327 -848,490 0,-326 0,-652 0,-978z"/>
   <path class="fil1" d="M1780 4725c283,-163 566,-326 848,-489 1,326 0,653 1,980 -283,-164 -566,-327 -849,-491z"/>
   <path class="fil1" d="M5931 4607c0,-327 0,-653 0,-980 284,162 567,326 850,489 -283,164 -566,327 -850,491z"/>
   <path class="fil1" d="M4945 4116c283,-163 565,-326 848,-488 0,326 0,652 0,978 -283,-164 -565,-326 -848,-490z"/>
   <path class="fil1" d="M1712 4606c0,-326 0,-652 0,-978 283,162 565,326 848,488 -283,163 -565,327 -848,490z"/>
   <path class="fil1" d="M724 4116c283,-163 565,-326 847,-488 0,326 1,652 0,978 -282,-164 -565,-326 -847,-490z"/>
   <path class="fil1" d="M6004 3506c281,-164 564,-326 846,-489 0,327 0,654 0,980 -258,-148 -515,-297 -772,-445 -25,-14 -52,-27 -74,-46z"/>
   <path class="fil1" d="M4876 3997c0,-327 0,-654 0,-980 283,163 566,326 849,490 -283,164 -565,327 -849,490z"/>
   <path class="fil1" d="M1780 3507c283,-164 566,-327 849,-490 -1,326 0,653 0,980 -284,-163 -566,-326 -849,-490z"/>
   <path class="fil1" d="M650 3029c9,-4 18,-7 27,-10l-4 9c278,159 554,319 831,479 -283,164 -566,327 -849,490 0,-279 0,-559 0,-838 0,-44 3,-87 -5,-130z"/>
   <path class="fil1" d="M3543 2945c83,-66 197,-86 299,-62 56,13 106,40 160,57 19,6 42,13 58,-2 10,-11 15,-25 22,-39 5,0 16,0 21,0 3,127 6,255 7,383 -31,-2 -31,-35 -40,-57 -26,-95 -67,-191 -142,-259 -69,-65 -180,-78 -265,-36 -101,51 -145,187 -95,289 39,85 125,135 207,173 121,59 256,111 339,223 128,170 75,441 -104,554 -128,83 -294,81 -435,34 -47,-14 -89,-43 -138,-50 -30,-2 -49,22 -64,45 -8,0 -15,1 -22,1 3,-132 3,-265 3,-398 32,1 32,35 40,57 31,103 77,208 162,278 74,64 183,83 274,46 75,-30 132,-100 146,-179 16,-84 -3,-175 -53,-245 -57,-71 -143,-109 -221,-151 -97,-52 -206,-100 -263,-200 -85,-151 -33,-358 104,-462z"/>
   <path class="fil1" d="M5931 2408c284,163 567,327 850,490 -283,164 -566,327 -850,491 0,-327 0,-654 0,-981z"/>
   <path class="fil1" d="M4945 2898c283,-163 565,-326 848,-489 0,326 0,652 0,979 -283,-164 -566,-326 -848,-490z"/>
   <path class="fil1" d="M1712 2409c283,163 565,326 848,489 -283,163 -565,327 -848,490 0,-327 0,-653 0,-979z"/>
   <path class="fil1" d="M724 2898c283,-163 565,-326 848,-489 -1,326 -1,652 -1,979 -282,-163 -564,-327 -847,-490z"/>
   <path class="fil1" d="M4876 1799c284,163 567,327 850,490 -284,163 -566,327 -850,490 0,-326 0,-653 0,-980z"/>
   <path class="fil1" d="M3890 2289c283,-163 565,-326 848,-490 0,327 0,654 0,980 -282,-163 -565,-326 -848,-490z"/>
   <path class="fil1" d="M2767 1800c282,163 565,325 848,489 -283,164 -566,326 -848,490 0,-327 0,-653 0,-979z"/>
   <path class="fil1" d="M2629 1799c0,327 0,654 -1,980 -282,-163 -565,-326 -848,-490 283,-164 566,-327 849,-490z"/>
   <path class="fil1" d="M3822 1190c283,163 565,327 848,490 -283,163 -565,326 -848,489 -1,-326 -1,-652 0,-979z"/>
   <path class="fil1" d="M2835 1680c282,-164 565,-327 848,-490 0,326 0,652 0,978 -283,-162 -565,-325 -848,-488z"/>
  </g>
 </g>
</svg>
