<svg id="Layer_1" data-name="Layer 1" xmlns="http://www.w3.org/2000/svg" width="7.5in" height="7.5in" viewBox="0 0 540 540">
  <title>UNITED BITCOIN</title>
  <circle cx="269.78" cy="266.47" r="223.2" style="fill: #fff"/>
  <path d="M257.47,43.27H282C330.74,46,378.51,65,415.46,97,461.29,136,489.77,194.16,493,254.17v24.54c-2.66,46.62-20,92.35-49.64,128.5a223.1,223.1,0,0,1-128.61,78.13,254.11,254.11,0,0,1-32.68,4.33H257.58C211,487,165.2,469.66,129,440A223.16,223.16,0,0,1,50.91,311.49a254.56,254.56,0,0,1-4.33-32.71V254.29C49.76,194.23,78.23,136,124.09,97,161,65,208.73,46.06,257.47,43.27Zm-35.28,95.23c-2.84,17.23-5.57,34.48-8.36,51.71-14.88,0-29.75,0-44.61,0,2.53-11.89,4.94-23.81,7.44-35.71-13.42.15-26.87-.19-40.3,0.18-2.26,12.16-5.1,24.19-7.45,36.34,12.69-.07,25.37,0,38,0-3.39,15-6.73,30.1-10.39,45.07-16.2-.09-32.41,0-48.6,0Q103,259.24,98.2,282.47q24.22,0,48.45,0c3.2-14.73,6.22-29.51,9.36-44.24,16.55-.06,33.09,0,49.64,0,3.33-15,6.8-30,10.19-45,20.49,0,41,0,61.45,0,10.34,0.45,21.35,1.32,30.31,7.07,11,6.87,11.68,24.8,1.65,32.86-8,6.79-19,8-29.08,8.73-19.91.15-39.82,0-59.71,0.06-2.4,14.14-6.84,28-7.89,42.29l1.47-.85c19.57-.34,39.13,0,58.7-0.15,10.33,0.21,21.2,1.19,30.22,6.68a24,24,0,0,1,11.38,16.22c0.88,9.54-2.23,20.18-10.34,25.92-9,6.41-20.43,7.84-31.16,7.74-24.42,0-48.82,0-73.24,0,4.3-18.47,8.14-37,12.84-55.4a4.45,4.45,0,0,0-2.75-1.62c-18.23.25-36.47,0-54.71,0.12-4,17.84-8,35.68-12,53.52-13.23.1-26.47,0-39.71,0-2.68,13.54-5.62,27-8.47,40.53,13.85,0.06,27.71,0,41.57,0q4-18.59,7.81-37.21c18.47,0,36.92-.06,55.38,0-2.63,18.26-5.94,36.41-8.76,54.64q84.86,0,169.72,0c22-.22,45.8-4,62.94-18.93C439,361.95,444,340.12,443,320.24c-0.92-15.85-4.24-32.83-15.53-44.74-10-11-25.21-15.24-39.61-16,13.66-1.41,28.08-4.09,38.75-13.44,14.23-12,18.53-31.69,18.08-49.51,0.51-15.77-5.83-32.14-18.63-41.83-16-12.26-36.87-15.28-56.48-16.17C320.42,138.46,271.3,138.54,222.19,138.51Z" style="fill: #38bde9"/>
</svg>
