<svg id="Layer_1" data-name="Layer 1" xmlns="http://www.w3.org/2000/svg" width="7.5in" height="7.5in" viewBox="0 0 540 540">
  <title>Veritaseum</title>
  <circle cx="269.78" cy="266.47" r="223.2" style="fill: #c2c2c4"/>
  <g>
    <path d="M126,130.06q23.46,0,46.91,0,14.82,77.48,29.61,155c0.46,2.28,1,4.55,1.63,6.8,2.33-9,3.78-18.21,5.72-27.31q13.49-67.22,27-134.45h45.37q-25,108.79-49.95,217.57H175.95Q151,238.93,126,130.21v-0.15Zm174.38,68.35c9.87-12.14,25.65-17.64,40.86-18.6,15-1,31.19.3,43.9,9.06,11.26,7.71,17.43,20.73,20.36,33.69,3.55,16.24,3.74,32.94,3.72,49.48H326.11c0.07,12.23-.73,24.86,3.47,36.57,2,5.77,5.8,11.5,11.81,13.61,6.39,2,14.1.71,18.77-4.34,6.23-6.9,7.53-16.58,8.89-25.43h37.73c-0.85,14.69-3.63,30.21-13.45,41.75-9.85,12-25.74,16.92-40.79,17.51-16.34.61-34.08-1.57-47.11-12.34-12.11-9.89-17.39-25.55-19.49-40.55a295.31,295.31,0,0,1-1.23-52.15c1.32-16.93,4.46-34.87,15.67-48.29m32.22,17.28c-6.44,9.06-6.6,20.73-6.5,31.41H369c-0.66-10.15-.59-20.89-5.27-30.19-5.8-11.47-24.16-11.52-31.17-1.22" style="fill: #f93"/>
    <g>
      <path d="M151.69,409.94H135.83a3.86,3.86,0,0,1-.89-0.1c-3.22-.77-8.72-3.76-8.88-10.08-0.12-4.77,0-14.79,0-16.42a9.85,9.85,0,0,1,2.15-7.1c1.22-1.41,3.54-3.09,7.62-3.09h38.12a11,11,0,0,1,7.45,2.65,9.81,9.81,0,0,1,3,7.3c0.13,6.62,0,10.33,0,10.48a3.81,3.81,0,0,1-7.61-.26s0.12-3.68,0-10.07a2.58,2.58,0,0,0-.56-1.84,3.43,3.43,0,0,0-2.06-.65H135.83a2.77,2.77,0,0,0-1.86.45,2.35,2.35,0,0,0-.33,1.48,3,3,0,0,1,0,.51c0,0.11-.12,11.41,0,16.36,0,1.64,1.94,2.48,2.72,2.76h15.3A3.81,3.81,0,0,1,151.69,409.94Z" style="fill: #f93"/>
      <path d="M365.8,409.94a10.89,10.89,0,0,1-7.2-2.66,9.82,9.82,0,0,1-3-7.3c-0.13-6.63,0-10.33,0-10.48a3.86,3.86,0,0,1,3.93-3.67,3.81,3.81,0,0,1,3.68,3.93s-0.12,3.68,0,10.07a2.56,2.56,0,0,0,.58,1.85,3.33,3.33,0,0,0,2,.63h38.41a2.74,2.74,0,0,0,1.87-.46,2.5,2.5,0,0,0,.33-1.41,3.79,3.79,0,0,1,0-.58c0-.11.12-11.41,0-16.36,0-1.65-1.91-2.48-2.72-2.76h-15.3a3.81,3.81,0,1,1,0-7.61h15.86a3.86,3.86,0,0,1,.89.1c3.22,0.77,8.72,3.76,8.88,10.08,0.12,4.77,0,14.79,0,16.42a9.85,9.85,0,0,1-2.15,7.1c-1.22,1.41-3.54,3.09-7.62,3.09H365.8Z" style="fill: #f93"/>
      <path d="M195.67,397.25h0a3.81,3.81,0,0,1-3.79-3.82l0-10.84a9.86,9.86,0,0,1,2.15-7.12c1.22-1.41,3.54-3.09,7.62-3.09h38.12a11,11,0,0,1,7.45,2.65,9.81,9.81,0,0,1,3,7.3c0.13,6.62,0,10.33,0,10.48a3.81,3.81,0,0,1-7.61-.26s0.12-3.68,0-10.07a2.58,2.58,0,0,0-.56-1.84A3.34,3.34,0,0,0,240,380H201.68a2.77,2.77,0,0,0-1.86.45,2.35,2.35,0,0,0-.33,1.48,2.94,2.94,0,0,1,0,.48l0,11A3.81,3.81,0,0,1,195.67,397.25Z" style="fill: #f93"/>
      <path d="M260.76,397.25h0a3.81,3.81,0,0,1-3.79-3.82l0-10.84a9.86,9.86,0,0,1,2.15-7.12c1.22-1.41,3.54-3.09,7.62-3.09h38.12a11,11,0,0,1,7.45,2.65,9.82,9.82,0,0,1,3,7.3c0.13,6.62,0,10.33,0,10.48a3.81,3.81,0,0,1-7.61-.26s0.12-3.68,0-10.07a2.58,2.58,0,0,0-.56-1.84,3.39,3.39,0,0,0-2.06-.65H266.76a2.77,2.77,0,0,0-1.86.45,2.35,2.35,0,0,0-.33,1.48,2.94,2.94,0,0,1,0,.48l0,11A3.81,3.81,0,0,1,260.76,397.25Z" style="fill: #f93"/>
      <path d="M327.06,397.25h0a3.81,3.81,0,0,1-3.79-3.82l0-10.84a9.85,9.85,0,0,1,2.15-7.12c1.22-1.41,3.54-3.09,7.62-3.09h38.12a11,11,0,0,1,7.45,2.65,9.82,9.82,0,0,1,3,7.3c0.13,6.62,0,10.33,0,10.48a3.8,3.8,0,0,1-3.8,3.68h-0.13a3.81,3.81,0,0,1-3.68-3.93s0.12-3.68,0-10.07a2.58,2.58,0,0,0-.56-1.84,3.42,3.42,0,0,0-2.06-.65H333.06a2.78,2.78,0,0,0-1.86.45,2.36,2.36,0,0,0-.33,1.48,2.94,2.94,0,0,1,0,.48l0,11A3.81,3.81,0,0,1,327.06,397.25Z" style="fill: #f93"/>
      <path d="M338.14,409.94H299.77c-4.08,0-6.39-1.68-7.62-3.09a9.85,9.85,0,0,1-2.15-7.12l0-10.84a3.81,3.81,0,0,1,3.79-3.82h0a3.81,3.81,0,0,1,3.81,3.79l0,11a3.81,3.81,0,0,1,0,.55,2.32,2.32,0,0,0,.34,1.42,2.77,2.77,0,0,0,1.86.45h38.41a3,3,0,0,0,2-.65,2.58,2.58,0,0,0,.56-1.84c0.12-6.39,0-10,0-10.07a3.81,3.81,0,0,1,3.68-3.93h0.13a3.8,3.8,0,0,1,3.8,3.68c0,0.15.13,3.86,0,10.48a9.82,9.82,0,0,1-3,7.3A10.89,10.89,0,0,1,338.14,409.94Z" style="fill: #f93"/>
      <path d="M207,409.94H168.6c-4.08,0-6.39-1.68-7.62-3.09a9.86,9.86,0,0,1-2.15-7.12l0-10.84a3.81,3.81,0,0,1,3.79-3.82h0a3.81,3.81,0,0,1,3.81,3.79l0,11a3.81,3.81,0,0,1,0,.55,2.32,2.32,0,0,0,.34,1.42,2.77,2.77,0,0,0,1.86.45H207a3.07,3.07,0,0,0,2-.65,2.58,2.58,0,0,0,.56-1.84c0.12-6.4,0-10,0-10.07a3.81,3.81,0,0,1,7.61-.26c0,0.15.13,3.86,0,10.48a9.81,9.81,0,0,1-3,7.3A10.89,10.89,0,0,1,207,409.94Z" style="fill: #f93"/>
      <path d="M272.61,409.94H234.24c-4.08,0-6.39-1.68-7.62-3.09a9.86,9.86,0,0,1-2.15-7.12l0-10.84a3.81,3.81,0,0,1,3.79-3.82h0a3.81,3.81,0,0,1,3.81,3.79l0,11a3.81,3.81,0,0,1,0,.55,2.32,2.32,0,0,0,.34,1.42,2.77,2.77,0,0,0,1.86.45h38.41a3,3,0,0,0,2-.65,2.58,2.58,0,0,0,.56-1.84c0.12-6.39,0-10,0-10.07a3.81,3.81,0,0,1,3.68-3.93,3.86,3.86,0,0,1,3.93,3.67c0,0.15.13,3.86,0,10.48a9.82,9.82,0,0,1-3,7.3A10.89,10.89,0,0,1,272.61,409.94Z" style="fill: #f93"/>
    </g>
  </g>
</svg>
