

<svg xmlns="http://www.w3.org/2000/svg" xml:space="preserve" width="10in" height="10in" version="1.1" style="shape-rendering:geometricPrecision; text-rendering:geometricPrecision; image-rendering:optimizeQuality; fill-rule:evenodd; clip-rule:evenodd"
viewBox="0 0 10000 10000"
 xmlns:xlink="http://www.w3.org/1999/xlink"
 enable-background="new 0 0 2000 2000"
 data-name="Layer 1">
 <defs>
  <style type="text/css">
   <![CDATA[
    .fil0 {fill:none}
    .fil1 {fill:#FCFCFC}
    .fil3 {fill:url(#id0)}
    .fil2 {fill:url(#id1)}
   ]]>
  </style>
  <linearGradient id="id0" gradientUnits="userSpaceOnUse" x1="4380.04" y1="2907.44" x2="5608.44" y2="4495.43">
   <stop offset="0" style="stop-opacity:1; stop-color:#57C5D4"/>
   <stop offset="1" style="stop-opacity:1; stop-color:#0697D6"/>
  </linearGradient>
  <linearGradient id="id1" gradientUnits="userSpaceOnUse" x1="4190.05" y1="4660.96" x2="5809.95" y2="7148.71">
   <stop offset="0" style="stop-opacity:1; stop-color:#EFEFEF"/>
   <stop offset="1" style="stop-opacity:1; stop-color:#D8D8D8"/>
  </linearGradient>
 </defs>
 <g id="Layer_x0020_1">
  <metadata id="CorelCorpID_0Corel-Layer"/>
  <rect class="fil0" x="1250" y="1250" width="7500" height="7500"/>
  <circle class="fil1" cx="5000" cy="5000" r="3100"/>
  <g id="_2081024027280">
   <path class="fil2" d="M6792 5890l-869 869 -537 537c-212,213 -560,213 -772,0l-537 -537 -869 -869 -626 -625c-77,-78 -77,-205 0,-282l571 -571c78,-77 205,-77 282,0l411 410 75 76c142,142 376,142 518,0l308 -308 145 -145c77,-78 204,-78 282,0l297 297 151 151c142,142 376,142 518,0l291 -291 162 -162c77,-77 204,-77 282,0l61 62 225 224 257 257c77,77 77,204 0,282l-626 625z"/>
   <path class="fil3" d="M5380 2704l41 40 17 17 403 404 750 749 5 5c76,77 76,201 0,277l-5 6 -536 536 -47 46c-79,79 -208,79 -288,0l-141 -141 -310 -311c-143,-142 -376,-142 -519,0l-242 242 -225 225c-79,79 -208,79 -288,0l-27 -27 -270 -270 -306 -306c-76,-76 -76,-200 0,-277l75 -74 640 -640 501 -501c212,-213 560,-213 772,0z"/>
  </g>
 </g>
</svg>
