

<svg xmlns="http://www.w3.org/2000/svg" xml:space="preserve" width="10in" height="10in" version="1.1" style="shape-rendering:geometricPrecision; text-rendering:geometricPrecision; image-rendering:optimizeQuality; fill-rule:evenodd; clip-rule:evenodd"
viewBox="0 0 10000 10000"
 xmlns:xlink="http://www.w3.org/1999/xlink"
 data-name="Layer 1">
 <defs>
  <style type="text/css">
   <![CDATA[
    .fil0 {fill:none}
    .fil1 {fill:#00CBFF;fill-rule:nonzero}
    .fil3 {fill:#0F9CBF;fill-rule:nonzero}
    .fil2 {fill:#BEC0BF;fill-rule:nonzero}
   ]]>
  </style>
 </defs>
 <g id="Layer_x0020_1">
  <metadata id="CorelCorpID_0Corel-Layer"/>
  <rect class="fil0" x="1250" y="1250" width="7500" height="7500"/>
  <g id="_1966257441760">
   <polygon class="fil1" points="6653,2934 3370,2934 2849,2934 4985,8100 5015,8100 7151,2934 "/>
   <polygon class="fil2" points="3276,2934 2849,1900 3370,1900 6653,1900 7151,1900 6724,2934 6653,2934 3370,2934 "/>
   <polygon class="fil3" points="4985,7066 3276,2934 3370,2934 6653,2934 6724,2934 5015,7066 "/>
  </g>
 </g>
</svg>
