

<svg xmlns="http://www.w3.org/2000/svg" xml:space="preserve" width="10in" height="10in" version="1.1" style="shape-rendering:geometricPrecision; text-rendering:geometricPrecision; image-rendering:optimizeQuality; fill-rule:evenodd; clip-rule:evenodd"
viewBox="0 0 10000 10000"
 xmlns:xlink="http://www.w3.org/1999/xlink"
 data-name="Layer 1">
 <defs>
  <style type="text/css">
   <![CDATA[
    .fil4 {fill:none}
    .fil2 {fill:#0D1006}
    .fil1 {fill:#CCB18E}
    .fil0 {fill:#E6E6E6}
    .fil3 {fill:#F88900}
   ]]>
  </style>
 </defs>
 <g id="Layer_x0020_1">
  <metadata id="CorelCorpID_0Corel-Layer"/>
  <g id="_1966359258080">
   <circle class="fil0" cx="5000" cy="5000" r="3100"/>
   <polygon class="fil1" points="2341,4538 3219,4007 6754,6077 5866,6597 "/>
   <polygon class="fil2" points="6759,4004 3213,6084 3213,5044 6759,2964 "/>
   <g>
    <path class="fil3" d="M5865 5556l0 -2067 -884 -520 0 2078 884 509 0 0zm0 0l0 0 0 0z"/>
   </g>
   <g>
    <path class="fil2" d="M6754 7129l-889 520 0 -1053 889 -520 0 1053 0 0zm0 0l0 0 0 0z"/>
   </g>
   <polygon class="fil3" points="2341,4538 3213,5045 3213,6091 2341,5584 "/>
   <polygon class="fil1" points="4981,2969 5865,2449 6760,2964 5865,3489 "/>
   <polygon class="fil3" points="5865,6596 4981,6080 4981,7129 5865,7649 "/>
  </g>
  <rect class="fil4" x="1250" y="1250" width="7500" height="7500"/>
 </g>
</svg>
