[
  {
    "symbol_id": "HUOBI_SPOT_BTC_CNY",
    "exchange_id": "HUOBI",
    "symbol_type": "SPOT",
    "asset_id_base": "BTC",
    "asset_id_quote": "CNY",
    "data_start": "2015-03-29",
    "data_end": "2018-03-09",
    "data_quote_start": "2015-03-29T21:46:06.2630000Z",
    "data_quote_end": "2018-03-09T00:00:00.0000000Z",
    "data_orderbook_start": "2015-03-29T21:46:06.2630000Z",
    "data_orderbook_end": "2018-03-09T00:00:00.0000000Z",
    "data_trade_start": "2015-03-29T21:46:08.7030000Z",
    "data_trade_end": "2017-10-31T00:00:00.0000000Z"
  },
  {
    "symbol_id": "HUOBI_SPOT_LTC_CNY",
    "exchange_id": "HUOBI",
    "symbol_type": "SPOT",
    "asset_id_base": "LTC",
    "asset_id_quote": "CNY",
    "data_start": "2015-03-29",
    "data_end": "2018-03-09",
    "data_quote_start": "2015-03-29T21:46:08.7500000Z",
    "data_quote_end": "2018-03-09T00:00:00.0000000Z",
    "data_orderbook_start": "2015-03-29T21:46:08.7500000Z",
    "data_orderbook_end": "2018-03-09T00:00:00.0000000Z",
    "data_trade_start": "2015-03-29T21:46:52.4070000Z",
    "data_trade_end": "2018-03-09T00:00:00.0000000Z"
  }
]