{
  "trades":[
    {
      "exchange":"binance",
      "volume":"48930.45",
      "aggregatedPrice":"18.02805",
      "avgPrice":"0.0003684424",
      "fees":{
        "bnb":{
          "maker":{
            "general":"0.01352104",
            "vip1":"0.01216894",
            "vip2":"0.01081683",
            "vip3":"0.009464727",
            "vip4":"0.008112623",
            "vip5":"0.006760519",
            "vip6":"0.005408415",
            "vip7":"0.004056312",
            "vip8":"0.002704208"
          },
          "taker":{
            "general":"0.01352104",
            "vip1":"0.01352104",
            "vip2":"0.01352104",
            "vip3":"0.01216894",
            "vip4":"0.01081683",
            "vip5":"0.009464727",
            "vip6":"0.008112623",
            "vip7":"0.006760519",
            "vip8":"0.005408415"
          }
        },
        "non-bnb":{
          "maker":{
            "general":"0.01802805",
            "vip1":"0.01622525",
            "vip2":"0.01442244",
            "vip3":"0.01261964",
            "vip4":"0.01081683",
            "vip5":"0.009014025",
            "vip6":"0.00721122",
            "vip7":"0.005408415",
            "vip8":"0.00360561"
          },
          "taker":{
            "general":"0.01802805",
            "vip1":"0.01802805",
            "vip2":"0.01802805",
            "vip3":"0.01622525",
            "vip4":"0.01442244",
            "vip5":"0.01261964",
            "vip6":"0.01081683",
            "vip7":"0.009014025",
            "vip8":"0.00721122"
          }
        },
        "summary":{
          "exchange":"binance",
          "bnb":{
            "low":"0.01352104",
            "high":"0.002704208"
          },
          "non-bnb":{
            "low":"0.01802805",
            "high":"0.00360561"
          },
          "low":"0.01802805",
          "high":"0.002704208"
        }
      }
    },
    {
      "exchange":"okex",
      "volume":"830.1384",
      "aggregatedPrice":"0.3061551",
      "avgPrice":"0.0003688001",
      "fees":{
        "maker":{
          "tier1":"0.0003061551",
          "tier2":"0.0002755396",
          "tier3":"0.0002449241",
          "tier4":"0.0002143086",
          "tier5":"0.0001836931",
          "tier6":"0.0001530776",
          "tier7":"0.00009184653",
          "tier8":"0.00006123102"
        },
        "taker":{
          "tier1":"0.0004592327",
          "tier2":"0.0004286172",
          "tier3":"0.0003980017",
          "tier4":"0.0003673862",
          "tier5":"0.0003061551",
          "tier6":"0.0002449241",
          "tier7":"0.0001836931",
          "tier8":"0.0001530776"
        },
        "summary":{
          "exchange":"okex",
          "low":"0.0003061551",
          "high":"0.00006123102"
        }
      }
    },
    {
      "exchange":"huobipro",
      "volume":"50239.42",
      "aggregatedPrice":"18.4978",
      "avgPrice":"0.000368193",
      "fees":{
        "maker":{
          "general":"0.0369956",
          "vip1":"0.03329604",
          "vip2":"0.02959648",
          "vip3":"0.02589692",
          "vip4":"0.02219736",
          "vip5":"0.0184978"
        },
        "taker":{
          "general":"0.0369956",
          "vip1":"0.03329604",
          "vip2":"0.02959648",
          "vip3":"0.02589692",
          "vip4":"0.02219736",
          "vip5":"0.0184978"
        },
        "summary":{
          "exchange":"huobipro",
          "low":"0.0369956",
          "high":"0.0184978"
        }
      }
    }
  ]
}
